%YAML 1.1
%TAG !u! tag:unity3d.com,2011:
--- !u!114 &11400000
MonoBehaviour:
  m_ObjectHideFlags: 0
  m_PrefabParentObject: {fileID: 0}
  m_PrefabInternal: {fileID: 0}
  m_GameObject: {fileID: 0}
  m_Enabled: 1
  m_EditorHideFlags: 0
  m_Script: {fileID: 11500000, guid: 339014226b68ae4468e47be82c23e698, type: 3}
  m_Name: WorldData
  m_EditorClassIdentifier: 
  islands:
  - pillarsDead: 0
    enemiesDead: 0
  - pillarsDead: 0
    enemiesDead: 0
  - pillarsDead: 0
    enemiesDead: 0
  - pillarsDead: 0
    enemiesDead: 0
  - pillarsDead: 0
    enemiesDead: 0
  - pillarsDead: 0
    enemiesDead: 0
  - pillarsDead: 0
    enemiesDead: 0
